nombre_nota,accidente,numero_octava,duracion,bloque
b,0,4,0.5,x
d,0,4,0.5,x
c,0,4,0.5,x
d,0,4,0.5,x
b,0,3,0.5,x
d,0,4,0.5,x
c,0,4,0.5,x
d,0,4,0.5,x
b,0,4,0.5,x
d,0,4,0.5,x
c,0,4,0.5,x
d,0,4,0.5,x
b,0,3,0.5,x
d,0,4,0.5,x
c,0,4,0.5,x
d,0,4,0.5,x
b,0,4,0.5,x
e,0,4,0.5,x
d,0,4,0.5,x
e,0,4,0.5,x
b,0,3,0.5,x
e,0,4,0.5,x
d,0,4,0.5,x
e,0,4,0.5,x
b,0,4,0.5,x
e,0,4,0.5,x
d,0,4,0.5,x
e,0,4,0.5,x
b,0,3,0.5,x
e,0,4,0.5,x
d,0,4,0.5,x
e,0,4,0.5,x
a,0,4,0.5,x
c,0,4,0.5,x
b,0,3,0.5,x
c,0,4,0.5,x
a,0,3,0.5,x
c,0,4,0.5,x
b,0,3,0.5,x
c,0,4,0.5,x
a,0,4,0.5,x
c,0,4,0.5,x
b,0,3,0.5,x
c,0,4,0.5,x
a,0,3,0.5,x
c,0,4,0.5,x
b,0,3,0.5,x
c,0,4,0.5,x
a,0,4,0.5,x
d,0,4,0.5,x
c,0,4,0.5,x
d,0,4,0.5,x
b,0,3,0.5,x
d,0,4,0.5,x
c,0,4,0.5,x
d,0,4,0.5,x
a,0,4,0.5,x
d,0,4,0.5,x
c,0,4,0.5,x
d,0,4,0.5,x
b,0,3,0.5,x
d,0,4,0.5,x
c,0,4,0.5,x
d,0,4,0.5,x
g,0,4,0.5,x
e,0,4,0.5,x
d,0,4,0.5,x
e,0,4,0.5,x
b,0,3,0.5,x
e,0,4,0.5,x
d,0,4,0.5,x
e,0,4,0.5,x
g,0,4,0.5,x
e,0,4,0.5,x
d,0,4,0.5,x
e,0,4,0.5,x
b,0,3,0.5,x
e,0,4,0.5,x
d,0,4,0.5,x
e,0,4,0.5,x
a,0,4,0.5,x
e,0,4,0.5,x
d,0,4,0.5,x
e,0,4,0.5,x
c,0,4,0.5,x
e,0,4,0.5,x
d,0,4,0.5,x
e,0,4,0.5,x
a,0,4,0.5,x
e,0,4,0.5,x
d,0,4,0.5,x
e,0,4,0.5,x
c,0,4,0.5,x
e,0,4,0.5,x
d,0,4,0.5,x
e,0,4,0.5,x
a,0,4,0.5,x
g,0,4,0.5,x
f,1,4,0.5,x
g,0,4,0.5,x
d,0,4,0.5,x
g,0,4,0.5,x
f,1,4,0.5,x
g,0,4,0.5,x
a,0,4,0.5,x
g,0,4,0.5,x
f,1,4,0.5,x
g,0,4,0.5,x
d,0,4,0.5,x
g,0,4,0.5,x
f,1,4,0.5,x
g,0,4,0.5,x
b,0,4,0.5,x
g,0,4,0.5,x
f,1,4,0.5,x
g,0,4,0.5,x
d,0,4,0.5,x
g,0,4,0.5,x
f,1,4,0.5,x
g,0,4,0.5,x
b,0,4,0.5,x
g,0,4,0.5,x
f,1,4,0.5,x
g,0,4,0.5,x
a,0,4,0.5,x
g,0,4,0.5,x
f,1,4,0.5,x
g,0,4,0.5,x
b,0,4,0.5,x
d,0,4,0.5,x
c,0,4,0.5,x
d,0,4,0.5,x
b,0,3,0.5,x
d,0,4,0.5,x
c,0,4,0.5,x
d,0,4,0.5,x
b,0,4,0.5,x
d,0,4,0.5,x
c,0,4,0.5,x
d,0,4,0.5,x
b,0,3,0.5,x
d,0,4,0.5,x
c,0,4,0.5,x
d,0,4,0.5,x
b,0,4,0.5,x
e,0,4,0.5,x
d,0,4,0.5,x
e,0,4,0.5,x
b,0,3,0.5,x
e,0,4,0.5,x
d,0,4,0.5,x
e,0,4,0.5,x
b,0,4,0.5,x
e,0,4,0.5,x
d,0,4,0.5,x
e,0,4,0.5,x
b,0,3,0.5,x
e,0,4,0.5,x
d,0,4,0.5,x
e,0,4,0.5,x
a,0,4,0.5,x
c,0,4,0.5,x
b,0,3,0.5,x
c,0,4,0.5,x
b,0,4,0.5,x
c,0,4,0.5,x
b,0,3,0.5,x
c,0,4,0.5,x
a,0,4,0.5,x
c,0,4,0.5,x
b,0,3,0.5,x
c,0,4,0.5,x
g,0,4,0.5,x
c,0,4,0.5,x
b,0,3,0.5,x
c,0,4,0.5,x
a,0,4,0.5,x
d,0,4,0.5,x
c,0,4,0.5,x
d,0,4,0.5,x
b,0,3,0.5,x
d,0,4,0.5,x
c,0,4,0.5,x
d,0,4,0.5,x
a,0,4,0.5,x
d,0,4,0.5,x
c,0,4,0.5,x
d,0,4,0.5,x
b,0,3,0.5,x
d,0,4,0.5,x
c,0,4,0.5,x
d,0,4,0.5,x
g,0,4,0.5,x
e,0,4,0.5,x
d,0,4,0.5,x
e,0,4,0.5,x
b,0,3,0.5,x
e,0,4,0.5,x
d,0,4,0.5,x
e,0,4,0.5,x
g,0,4,0.5,x
e,0,4,0.5,x
d,0,4,0.5,x
e,0,4,0.5,x
b,0,3,0.5,x
e,0,4,0.5,x
d,0,4,0.5,x
e,0,4,0.5,x
a,0,4,0.5,x
e,0,4,0.5,x
d,0,4,0.5,x
e,0,4,0.5,x
c,0,4,0.5,x
e,0,4,0.5,x
d,0,4,0.5,x
e,0,4,0.5,x
a,0,4,0.5,x
e,0,4,0.5,x
d,0,4,0.5,x
e,0,4,0.5,x
c,0,4,0.5,x
e,0,4,0.5,x
d,0,4,0.5,x
e,0,4,0.5,x
a,0,4,0.5,x
g,0,4,0.5,x
f,1,4,0.5,x
g,0,4,0.5,x
d,0,4,0.5,x
g,0,4,0.5,x
f,1,4,0.5,x
g,0,4,0.5,x
a,0,4,0.5,x
g,0,4,0.5,x
f,1,4,0.5,x
g,0,4,0.5,x
d,0,4,0.5,x
g,0,4,0.5,x
f,1,4,0.5,x
g,0,4,0.5,x
b,0,4,0.5,x
g,0,4,0.5,x
f,1,4,0.5,x
g,0,4,0.5,x
b,0,4,0.5,x
g,0,4,0.5,x
f,0,4,0.5,x
g,0,4,0.5,x
c,0,5,0.5,x
g,0,4,0.5,x
f,0,4,0.5,x
g,0,4,0.5,x
d,0,5,0.5,x
g,0,4,0.5,x
f,0,4,0.5,x
g,0,4,0.5,x
e,0,5,0.5,x
d,0,5,0.5,x
c,0,5,0.5,x
d,0,5,0.5,x
e,0,5,0.5,x
g,0,4,0.5,x
a,0,4,0.5,x
g,0,5,0.5,x
f,0,5,0.5,x
e,0,5,0.5,x
d,0,5,0.5,x
c,0,5,0.5,x
d,0,5,0.5,x
e,0,5,0.5,x
f,0,5,0.5,x
f,0,4,0.5,x
g,0,4,0.5,x
f,0,5,0.5,x
e,0,5,0.5,x
d,0,5,0.5,x
c,0,5,0.5,x
b,0,4,0.5,x
a,-1,4,0.5,x
b,0,4,0.5,x
c,0,5,0.5,x
c,0,5,0.5,x
b,0,4,0.5,x
a,-1,4,0.5,x
b,0,4,0.5,x
c,0,5,0.5,x
c,0,5,0.5,x
b,0,4,0.5,x
a,-1,4,0.5,x
b,0,4,0.5,x
c,0,5,0.5,x
f,0,4,0.5,x
f,0,4,0.5,x
e,0,5,0.5,x
d,0,5,0.5,x
d,0,5,0.5,x
e,0,5,0.5,x
d,0,5,0.5,x
c,0,5,0.5,x
d,0,5,0.5,x
e,0,5,0.5,x
f,0,5,0.5,x
g,0,5,0.5,x
g,0,4,0.5,x
a,0,4,0.5,x
g,0,5,0.5,x
f,0,5,0.5,x
d,0,5,0.5,x
c,0,5,0.5,x
b,0,4,0.5,x
c,0,5,0.5,x
d,0,5,0.5,x
e,0,5,0.5,x
f,0,5,0.5,x
f,0,4,0.5,x
g,0,4,0.5,x
f,0,5,0.5,x
e,0,5,0.5,x
c,0,5,0.5,x
b,0,4,0.5,x
a,0,4,0.5,x
b,0,4,0.5,x
c,0,5,0.5,x
d,0,4,0.5,x
e,0,4,0.5,x
f,0,4,0.5,x
a,0,4,0.5,x
c,0,5,0.5,x
b,0,4,0.5,x
f,0,4,0.5,x
f,0,4,0.5,x
e,0,5,0.5,x
d,0,5,0.5,x
b,0,4,0.5,x
c,0,5,0.5,x
d,0,5,0.5,x
g,0,5,0.5,x
f,0,5,0.5,x
e,0,5,0.5,x
d,0,5,0.5,x
e,0,5,0.5,x
f,0,5,0.5,x
g,0,5,0.5,x
c,0,5,0.5,x
a,0,5,0.5,x
g,0,5,0.5,x
f,0,5,0.5,x
e,0,5,0.5,x
f,0,5,0.5,x
e,0,5,0.5,x
d,0,5,0.5,x
c,0,5,0.5,x
d,0,5,0.5,x
e,0,5,0.5,x
f,0,5,0.5,x
f,0,4,0.5,x
g,0,4,0.5,x
f,0,5,0.5,x
e,0,5,0.5,x
d,0,5,0.5,x
e,0,5,0.5,x
d,0,5,0.5,x
c,0,5,0.5,x
b,0,4,0.5,x
c,0,5,0.5,x
d,0,5,0.5,x
e,0,5,0.5,x
a,0,4,0.5,x
f,0,5,0.5,x
e,0,5,0.5,x
d,0,5,0.5,x
c,0,5,0.5,x
b,0,4,0.5,x
b,0,4,0.5,x
c,0,5,0.5,x
d,0,5,0.5,x
e,0,5,0.5,x
d,0,5,0.5,x
e,0,5,0.5,x
f,0,5,0.5,x
g,0,5,0.5,x
e,0,5,0.5,x
d,0,5,0.5,x
e,0,5,0.5,x
c,0,5,0.5,x
e,0,5,0.5,x
d,0,5,0.5,x
e,0,5,0.5,x
g,0,5,0.5,x
e,0,5,0.5,x
d,0,5,0.5,x
e,0,5,0.5,x
c,0,5,0.5,x
e,0,5,0.5,x
d,0,5,0.5,x
e,0,5,0.5,x
a,0,5,0.5,x
e,0,5,0.5,x
d,0,5,0.5,x
e,0,5,0.5,x
c,0,5,0.5,x
e,0,5,0.5,x
d,0,5,0.5,x
e,0,5,0.5,x
a,0,5,0.5,x
e,0,5,0.5,x
d,0,5,0.5,x
e,0,5,0.5,x
c,0,5,0.5,x
e,0,5,0.5,x
d,0,5,0.5,x
e,0,5,0.5,x
f,0,5,0.5,x
d,0,5,0.5,x
c,0,5,0.5,x
d,0,5,0.5,x
b,0,4,0.5,x
d,0,5,0.5,x
c,0,5,0.5,x
d,0,5,0.5,x
f,0,5,0.5,x
d,0,5,0.5,x
c,0,5,0.5,x
d,0,5,0.5,x
b,0,4,0.5,x
d,0,5,0.5,x
c,0,5,0.5,x
d,0,5,0.5,x
g,0,5,0.5,x
e,0,5,0.5,x
d,0,5,0.5,x
e,0,5,0.5,x
b,0,4,0.5,x
e,0,5,0.5,x
d,0,5,0.5,x
e,0,5,0.5,x
g,0,5,0.5,x
e,0,5,0.5,x
d,0,5,0.5,x
e,0,5,0.5,x
b,0,4,0.5,x
e,0,5,0.5,x
d,0,5,0.5,x
e,0,5,0.5,x
e,0,5,0.5,x
c,0,5,0.5,x
b,0,4,0.5,x
c,0,5,0.5,x
a,0,4,0.5,x
c,0,5,0.5,x
b,0,4,0.5,x
c,0,5,0.5,x
e,0,5,0.5,x
c,0,5,0.5,x
b,0,4,0.5,x
c,0,5,0.5,x
a,0,4,0.5,x
c,0,5,0.5,x
b,0,4,0.5,x
c,0,5,0.5,x
f,0,5,0.5,x
c,0,5,0.5,x
b,0,4,0.5,x
c,0,5,0.5,x
a,0,4,0.5,x
c,0,5,0.5,x
b,0,4,0.5,x
c,0,5,0.5,x
f,0,5,0.5,x
c,0,5,0.5,x
b,0,4,0.5,x
c,0,5,0.5,x
a,0,4,0.5,x
c,0,5,0.5,x
b,0,4,0.5,x
c,0,5,0.5,x
f,0,5,0.5,x
d,0,5,0.5,x
c,0,5,0.5,x
d,0,5,0.5,x
a,0,4,0.5,x
d,0,5,0.5,x
c,0,5,0.5,x
d,0,5,0.5,x
f,0,5,0.5,x
d,0,5,0.5,x
c,0,5,0.5,x
d,0,5,0.5,x
a,0,4,0.5,x
d,0,5,0.5,x
c,0,5,0.5,x
d,0,5,0.5,x
f,0,5,0.5,x
d,0,5,0.5,x
c,0,5,0.5,x
d,0,5,0.5,x
b,0,4,0.5,x
d,0,5,0.5,x
c,0,5,0.5,x
d,0,5,0.5,x
e,0,5,0.5,x
d,0,5,0.5,x
c,0,5,0.5,x
d,0,5,0.5,x
f,0,5,0.5,x
d,0,5,0.5,x
c,0,5,0.5,x
d,0,5,0.5,x
g,0,5,0.5,x
e,0,5,0.5,x
d,0,5,0.5,x
e,0,5,0.5,x
c,0,5,0.5,x
e,0,5,0.5,x
d,0,5,0.5,x
e,0,5,0.5,x
g,0,5,0.5,x
e,0,5,0.5,x
d,0,5,0.5,x
e,0,5,0.5,x
f,0,5,0.5,x
e,0,5,0.5,x
d,0,5,0.5,x
e,0,5,0.5,x
a,0,5,0.5,x
e,0,5,0.5,x
d,0,5,0.5,x
e,0,5,0.5,x
c,0,5,0.5,x
e,0,5,0.5,x
d,0,5,0.5,x
e,0,5,0.5,x
a,0,5,0.5,x
e,0,5,0.5,x
d,0,5,0.5,x
e,0,5,0.5,x
g,0,5,0.5,x
e,0,5,0.5,x
d,0,5,0.5,x
e,0,5,0.5,x
f,0,5,0.5,x
d,0,5,0.5,x
c,0,5,0.5,x
d,0,5,0.5,x
b,0,4,0.5,x
d,0,5,0.5,x
c,0,5,0.5,x
d,0,5,0.5,x
f,0,5,0.5,x
d,0,5,0.5,x
c,0,5,0.5,x
d,0,5,0.5,x
e,0,5,0.5,x
d,0,5,0.5,x
c,0,5,0.5,x
d,0,5,0.5,x
g,0,5,0.5,x
e,0,5,0.5,x
d,0,5,0.5,x
e,0,5,0.5,x
b,0,4,0.5,x
e,0,5,0.5,x
d,0,5,0.5,x
e,0,5,0.5,x
g,0,5,0.5,x
e,0,5,0.5,x
d,0,5,0.5,x
e,0,5,0.5,x
f,0,5,0.5,x
e,0,5,0.5,x
d,0,5,0.5,x
e,0,5,0.5,x
e,0,5,0.5,x
c,0,5,0.5,x
b,0,4,0.5,x
c,0,5,0.5,x
a,-1,4,0.5,x
c,0,5,0.5,x
b,0,4,0.5,x
c,0,5,0.5,x
e,0,5,0.5,x
c,0,5,0.5,x
b,0,4,0.5,x
c,0,5,0.5,x
a,-1,4,0.5,x
c,0,5,0.5,x
b,0,4,0.5,x
c,0,5,0.5,x
f,0,5,0.5,x
c,0,5,0.5,x
b,0,4,0.5,x
c,0,5,0.5,x
a,-1,4,0.5,x
c,0,5,0.5,x
b,0,4,0.5,x
c,0,5,0.5,x
f,0,5,0.5,x
c,0,5,0.5,x
b,0,4,0.5,x
c,0,5,0.5,x
e,0,5,0.5,x
c,0,5,0.5,x
b,0,4,0.5,x
c,0,5,0.5,x
d,0,5,0.5,x
c,0,5,0.5,x
b,0,4,0.5,x
c,0,5,0.5,x
a,-1,4,0.5,x
c,0,5,0.5,x
b,0,4,0.5,x
c,0,5,0.5,x
d,0,5,0.5,x
c,0,5,0.5,x
b,0,4,0.5,x
c,0,5,0.5,x
e,0,5,0.5,x
c,0,5,0.5,x
b,0,4,0.5,x
c,0,5,0.5,x
d,0,5,0.5,x
g,0,4,0.5,x
f,0,4,0.5,x
g,0,4,0.5,x
d,0,4,0.5,x
g,0,4,0.5,x
f,0,4,0.5,x
g,0,4,0.5,x
d,0,5,0.5,x
g,0,4,0.5,x
f,0,4,0.5,x
g,0,4,0.5,x
d,0,4,0.5,x
g,0,4,0.5,x
f,0,4,0.5,x
g,0,4,0.5,x
c,0,5,0.5,x
e,0,4,0.5,x
d,0,4,0.5,x
e,0,4,0.5,x
c,0,4,0.5,x
e,0,4,0.5,x
d,0,4,0.5,x
e,0,4,0.5,x
b,0,4,0.5,x
d,0,4,0.5,x
c,0,4,0.5,x
d,0,4,0.5,x
a,0,3,0.5,x
d,0,4,0.5,x
c,0,4,0.5,x
d,0,4,0.5,x
b,0,4,0.5,x
d,0,4,0.5,x
c,0,4,0.5,x
d,0,4,0.5,x
b,0,3,0.5,x
d,0,4,0.5,x
c,0,4,0.5,x
d,0,4,0.5,x
b,0,4,0.5,x
d,0,4,0.5,x
c,0,4,0.5,x
d,0,4,0.5,x
b,0,3,0.5,x
d,0,4,0.5,x
c,0,4,0.5,x
d,0,4,0.5,x
b,0,4,0.5,x
e,0,4,0.5,x
d,0,4,0.5,x
e,0,4,0.5,x
b,0,3,0.5,x
e,0,4,0.5,x
d,0,4,0.5,x
e,0,4,0.5,x
b,0,4,0.5,x
e,0,4,0.5,x
d,0,4,0.5,x
e,0,4,0.5,x
b,0,3,0.5,x
e,0,4,0.5,x
d,0,4,0.5,x
e,0,4,0.5,x
a,0,4,0.5,x
c,0,4,0.5,x
b,0,3,0.5,x
c,0,4,0.5,x
a,0,3,0.5,x
c,0,4,0.5,x
b,0,3,0.5,x
c,0,4,0.5,x
a,0,4,0.5,x
c,0,4,0.5,x
b,0,3,0.5,x
c,0,4,0.5,x
a,0,3,0.5,x
c,0,4,0.5,x
b,0,3,0.5,x
c,0,4,0.5,x
a,0,4,0.5,x
d,0,4,0.5,x
c,0,4,0.5,x
d,0,4,0.5,x
b,0,3,0.5,x
d,0,4,0.5,x
c,0,4,0.5,x
d,0,4,0.5,x
a,0,4,0.5,x
d,0,4,0.5,x
c,0,4,0.5,x
d,0,4,0.5,x
b,0,3,0.5,x
d,0,4,0.5,x
c,0,4,0.5,x
d,0,4,0.5,x
g,0,4,0.5,x
e,0,4,0.5,x
d,0,4,0.5,x
e,0,4,0.5,x
b,0,3,0.5,x
e,0,4,0.5,x
d,0,4,0.5,x
e,0,4,0.5,x
g,0,4,0.5,x
e,0,4,0.5,x
d,0,4,0.5,x
e,0,4,0.5,x
b,0,3,0.5,x
e,0,4,0.5,x
d,0,4,0.5,x
e,0,4,0.5,x
a,0,4,0.5,x
e,0,4,0.5,x
d,0,4,0.5,x
e,0,4,0.5,x
c,0,4,0.5,x
e,0,4,0.5,x
d,0,4,0.5,x
e,0,4,0.5,x
a,0,4,0.5,x
e,0,4,0.5,x
d,0,4,0.5,x
e,0,4,0.5,x
c,0,4,0.5,x
e,0,4,0.5,x
d,0,4,0.5,x
e,0,4,0.5,x
a,0,4,0.5,x
g,0,4,0.5,x
f,0,4,0.5,x
g,0,4,0.5,x
d,0,4,0.5,x
g,0,4,0.5,x
f,0,4,0.5,x
g,0,4,0.5,x
a,0,4,0.5,x
g,0,4,0.5,x
f,0,4,0.5,x
g,0,4,0.5,x
d,0,4,0.5,x
g,0,4,0.5,x
f,0,4,0.5,x
g,0,4,0.5,x
b,0,4,0.5,x
g,0,4,0.5,x
f,0,4,0.5,x
g,0,4,0.5,x
d,0,4,0.5,x
g,0,4,0.5,x
f,0,4,0.5,x
g,0,4,0.5,x
b,0,4,0.5,x
g,0,4,0.5,x
f,0,4,0.5,x
g,0,4,0.5,x
a,0,4,0.5,x
g,0,4,0.5,x
f,0,4,0.5,x
g,0,4,0.5,x
b,0,4,0.5,x
d,0,4,0.5,x
c,0,4,0.5,x
d,0,4,0.5,x
b,0,3,0.5,x
d,0,4,0.5,x
c,0,4,0.5,x
a,0,4,0.5,x
b,0,4,0.5,x
d,0,4,0.5,x
c,0,4,0.5,x
a,0,4,0.5,x
b,0,4,0.5,x
d,0,4,0.5,x
c,0,4,0.5,x
b,0,4,0.5,x
c,0,5,0.5,x
e,0,4,0.5,x
d,0,4,0.5,x
e,0,4,0.5,x
c,0,4,0.5,x
e,0,4,0.5,x
d,0,4,0.5,x
a,0,4,0.5,x
c,0,5,0.5,x
e,0,4,0.5,x
d,0,4,0.5,x
g,0,4,0.5,x
c,0,5,0.5,x
e,0,4,0.5,x
d,0,4,0.5,x
f,0,4,0.5,x
c,0,5,0.5,x
c,0,4,0.5,x
b,0,3,0.5,x
c,0,4,0.5,x
b,0,4,0.5,x
c,0,4,0.5,x
b,0,3,0.5,x
c,0,4,0.5,x
a,0,4,0.5,x
c,0,4,0.5,x
b,0,3,0.5,x
c,0,4,0.5,x
g,0,4,0.5,x
c,0,4,0.5,x
b,0,3,0.5,x
c,0,4,0.5,x
a,0,4,0.5,x
d,0,4,0.5,x
c,0,4,0.5,x
d,0,4,0.5,x
b,0,3,0.5,x
d,0,4,0.5,x
c,0,4,0.5,x
g,0,4,0.5,x
a,0,4,0.5,x
d,0,4,0.5,x
c,0,4,0.5,x
g,0,4,0.5,x
a,0,4,0.5,x
d,0,4,0.5,x
c,0,4,0.5,x
f,0,4,0.5,x
g,0,4,0.5,x
e,0,4,0.5,x
d,0,4,0.5,x
e,0,4,0.5,x
b,0,3,0.5,x
e,0,4,0.5,x
d,0,4,0.5,x
f,0,4,0.5,x
g,0,4,0.5,x
e,0,4,0.5,x
d,0,4,0.5,x
e,0,4,0.5,x
a,0,4,0.5,x
e,0,4,0.5,x
b,0,4,0.5,x
e,0,4,0.5,x
c,0,5,0.5,x
e,0,4,0.5,x
d,0,4,0.5,x
e,0,4,0.5,x
c,0,4,0.5,x
e,0,4,0.5,x
d,0,4,0.5,x
a,0,4,0.5,x
c,0,5,0.5,x
e,0,4,0.5,x
d,0,4,0.5,x
g,0,4,0.5,x
b,0,4,0.5,x
e,0,4,0.5,x
d,0,4,0.5,x
e,0,4,0.5,x
a,0,4,0.5,x
g,0,4,0.5,x
f,0,4,0.5,x
g,0,4,0.5,x
g,0,4,0.5,x
g,0,4,0.5,x
f,0,4,0.5,x
g,0,4,0.5,x
a,0,4,0.5,x
g,0,4,0.5,x
f,0,4,0.5,x
g,0,4,0.5,x
b,0,4,0.5,x
g,0,4,0.5,x
f,0,4,0.5,x
g,0,4,0.5,x
